<?xml version="1.0" encoding="UTF-8" standalone="no"?>
<svg
   xmlns:dc="http://purl.org/dc/elements/1.1/"
   xmlns:cc="http://creativecommons.org/ns#"
   xmlns:rdf="http://www.w3.org/1999/02/22-rdf-syntax-ns#"
   xmlns:svg="http://www.w3.org/2000/svg"
   xmlns="http://www.w3.org/2000/svg"
   xmlns:xlink="http://www.w3.org/1999/xlink"
   xmlns:sodipodi="http://sodipodi.sourceforge.net/DTD/sodipodi-0.dtd"
   xmlns:inkscape="http://www.inkscape.org/namespaces/inkscape"
   width="24"
   height="24"
   viewBox="0 0 24 24"
   fill="none"
   stroke="currentColor"
   stroke-width="2"
   stroke-linecap="round"
   stroke-linejoin="round"
   class="feather feather-sidebar"
   version="1.1"
   id="svg6"
   sodipodi:docname="logo.svg"
   inkscape:version="0.92.4 5da689c313, 2019-01-14"
   enable-background="new">
  <metadata
     id="metadata12">
    <rdf:RDF>
      <cc:Work
         rdf:about="">
        <dc:format>image/svg+xml</dc:format>
        <dc:type
           rdf:resource="http://purl.org/dc/dcmitype/StillImage" />
        <dc:title />
      </cc:Work>
    </rdf:RDF>
  </metadata>
  <defs
     id="defs10">
    <linearGradient
       inkscape:collect="always"
       id="linearGradient835">
      <stop
         style="stop-color:#100e27;stop-opacity:1"
         offset="0"
         id="stop831" />
      <stop
         id="stop839"
         offset="0.5014981"
         style="stop-color:#9532ad;stop-opacity:1" />
      <stop
         style="stop-color:#7eb6e8;stop-opacity:1"
         offset="1"
         id="stop833" />
    </linearGradient>
    <linearGradient
       inkscape:collect="always"
       xlink:href="#linearGradient835"
       id="linearGradient837"
       x1="0"
       y1="0"
       x2="24"
       y2="24"
       gradientUnits="userSpaceOnUse" />
    <filter
       inkscape:collect="always"
       style="color-interpolation-filters:sRGB"
       id="filter929">
      <feBlend
         inkscape:collect="always"
         mode="hard-light"
         in2="BackgroundImage"
         id="feBlend931" />
    </filter>
    <mask
       maskUnits="userSpaceOnUse"
       id="mask894">
      <g
         id="g900"
         style="stroke-width:2;stroke-miterlimit:4;stroke-dasharray:none">
        <rect
           id="rect896"
           ry="2"
           rx="2"
           height="18"
           width="18"
           y="3"
           x="3"
           style="stroke:#ffffff;stroke-width:2;stroke-miterlimit:4;stroke-dasharray:none;stroke-opacity:1" />
        <line
           id="line898"
           y2="21"
           x2="9"
           y1="3"
           x1="9"
           style="fill:none;fill-opacity:1;stroke:#ffffff;stroke-width:2;stroke-miterlimit:4;stroke-dasharray:none;stroke-opacity:1" />
      </g>
    </mask>
  </defs>
  <sodipodi:namedview
     pagecolor="#ffffff"
     bordercolor="#666666"
     borderopacity="1"
     objecttolerance="10"
     gridtolerance="10"
     guidetolerance="10"
     inkscape:pageopacity="0"
     inkscape:pageshadow="2"
     inkscape:window-width="2532"
     inkscape:window-height="1353"
     id="namedview8"
     showgrid="false"
     inkscape:zoom="27.812867"
     inkscape:cx="6.8914249"
     inkscape:cy="16.985938"
     inkscape:window-x="1934"
     inkscape:window-y="46"
     inkscape:window-maximized="0"
     inkscape:current-layer="svg6" />
  <g
     style="display:inline;stroke-width:2;stroke-miterlimit:4;stroke-dasharray:none"
     id="g892">
    <rect
       style="stroke:#ffffff;stroke-width:2;stroke-miterlimit:4;stroke-dasharray:none;stroke-opacity:1"
       x="3"
       y="3"
       width="18"
       height="18"
       rx="2"
       ry="2"
       id="rect888" />
    <line
       style="fill:none;fill-opacity:1;stroke:#ffffff;stroke-width:2;stroke-miterlimit:4;stroke-dasharray:none;stroke-opacity:1"
       x1="9"
       y1="3"
       x2="9"
       y2="21"
       id="line890" />
  </g>
  <rect
     style="display:inline;opacity:1;fill:url(#linearGradient837);fill-opacity:1;stroke:none;stroke-width:4;stroke-linecap:butt;stroke-linejoin:miter;stroke-miterlimit:4;stroke-dasharray:none;stroke-opacity:1;paint-order:normal;filter:url(#filter929)"
     id="rect827"
     width="24"
     height="24"
     x="0"
     y="0"
     mask="url(#mask894)" />
</svg>
